{
  "accessors": [
    {
      "bufferView": 2,
      "componentType": 5126,
      "count": 6741,
      "max": [
        0.0036266148090362549,
        0.20109814405441284,
        0.99483633041381836
      ],
      "min": [
        -0.096047520637512207,
        -0.20681910216808319,
        0.00026786327362060547
      ],
      "type": "VEC3"
    },
    {
      "bufferView": 2,
      "byteOffset": 80892,
      "componentType": 5126,
      "count": 6741,
      "max": [
        1,
        1,
        0.99995976686477661
      ],
      "min": [
        -1,
        -1,
        -1
      ],
      "type": "VEC3"
    },
    {
      "bufferView": 3,
      "componentType": 5126,
      "count": 6741,
      "max": [
        0.99999988079071045,
        1,
        0.97681528329849243,
        1
      ],
      "min": [
        -0.99996614456176758,
        -1,
        -0.94700080156326294,
        -1
      ],
      "type": "VEC4"
    },
    {
      "bufferView": 1,
      "componentType": 5126,
      "count": 6741,
      "max": [
        0.99984008073806763,
        0.99278610944747925
      ],
      "min": [
        0.0078081041574478149,
        0.0001599690003786236
      ],
      "type": "VEC2"
    },
    {
      "bufferView": 1,
      "byteOffset": 53928,
      "componentType": 5126,
      "count": 6741,
      "max": [
        0.99984008073806763,
        0.99278610944747925
      ],
      "min": [
        0.0078081041574478149,
        0.0001599690003786236
      ],
      "type": "VEC2"
    },
    {
      "bufferView": 0,
      "componentType": 5125,
      "count": 36570,
      "max": [
        6740
      ],
      "min": [
        0
      ],
      "type": "SCALAR"
    },
    {
      "bufferView": 2,
      "byteOffset": 161784,
      "componentType": 5126,
      "count": 4877,
      "max": [
        0.0087904855608940125,
        0.18959389626979828,
        0.8317410945892334
      ],
      "min": [
        -0.094866976141929626,
        -0.19302515685558319,
        0.018571019172668457
      ],
      "type": "VEC3"
    },
    {
      "bufferView": 2,
      "byteOffset": 220308,
      "componentType": 5126,
      "count": 4877,
      "max": [
        1,
        0.99999517202377319,
        1
      ],
      "min": [
        -1,
        -0.99999362230300903,
        -1
      ],
      "type": "VEC3"
    },
    {
      "bufferView": 3,
      "byteOffset": 107856,
      "componentType": 5126,
      "count": 4877,
      "max": [
        1,
        0.99999183416366577,
        0.99999982118606567,
        1
      ],
      "min": [
        -0.9999997615814209,
        -0.99998950958251953,
        -0.99999827146530151,
        -1
      ],
      "type": "VEC4"
    },
    {
      "bufferView": 1,
      "byteOffset": 107856,
      "componentType": 5126,
      "count": 4877,
      "max": [
        0.77390009164810181,
        0.9559745192527771
      ],
      "min": [
        0.015397131443023682,
        0.51225858926773071
      ],
      "type": "VEC2"
    },
    {
      "bufferView": 0,
      "byteOffset": 146280,
      "componentType": 5125,
      "count": 28272,
      "max": [
        4876
      ],
      "min": [
        0
      ],
      "type": "SCALAR"
    },
    {
      "bufferView": 2,
      "byteOffset": 278832,
      "componentType": 5126,
      "count": 5772,
      "max": [
        -0.010541267693042755,
        0.056356910616159439,
        0.95479929447174072
      ],
      "min": [
        -0.033227920532226562,
        -0.033626385033130646,
        0.86581802368164062
      ],
      "type": "VEC3"
    },
    {
      "bufferView": 2,
      "byteOffset": 348096,
      "componentType": 5126,
      "count": 5772,
      "max": [
        0.99867963790893555,
        1,
        0.98253154754638672
      ],
      "min": [
        -0.99867957830429077,
        -1,
        -0.9839940071105957
      ],
      "type": "VEC3"
    },
    {
      "bufferView": 1,
      "byteOffset": 146872,
      "componentType": 5126,
      "count": 5772,
      "max": [
        0,
        0
      ],
      "min": [
        0,
        0
      ],
      "type": "VEC2"
    },
    {
      "bufferView": 0,
      "byteOffset": 259368,
      "componentType": 5125,
      "count": 16488,
      "max": [
        5771
      ],
      "min": [
        0
      ],
      "type": "SCALAR"
    },
    {
      "bufferView": 2,
      "byteOffset": 417360,
      "componentType": 5126,
      "count": 11100,
      "max": [
        0.016506347805261612,
        0.043860800564289093,
        0.94735217094421387
      ],
      "min": [
        -0.030482672154903412,
        -0.030638977885246277,
        0.15712247788906097
      ],
      "type": "VEC3"
    },
    {
      "bufferView": 2,
      "byteOffset": 550560,
      "componentType": 5126,
      "count": 11100,
      "max": [
        1,
        1,
        1
      ],
      "min": [
        -1,
        -1,
        -1
      ],
      "type": "VEC3"
    },
    {
      "bufferView": 1,
      "byteOffset": 193048,
      "componentType": 5126,
      "count": 11100,
      "max": [
        0,
        0
      ],
      "min": [
        0,
        0
      ],
      "type": "VEC2"
    },
    {
      "bufferView": 0,
      "byteOffset": 325320,
      "componentType": 5125,
      "count": 53424,
      "max": [
        11099
      ],
      "min": [
        0
      ],
      "type": "SCALAR"
    },
    {
      "bufferView": 2,
      "byteOffset": 683760,
      "componentType": 5126,
      "count": 168,
      "max": [
        0.004953872412443161,
        0.030811643227934837,
        0.83396100997924805
      ],
      "min": [
        0.0016457103192806244,
        -0.0072560589760541916,
        0.82991123199462891
      ],
      "type": "VEC3"
    },
    {
      "bufferView": 2,
      "byteOffset": 685776,
      "componentType": 5126,
      "count": 168,
      "max": [
        1,
        1,
        1
      ],
      "min": [
        -1,
        -1,
        -1
      ],
      "type": "VEC3"
    },
    {
      "bufferView": 1,
      "byteOffset": 281848,
      "componentType": 5126,
      "count": 168,
      "max": [
        0,
        0
      ],
      "min": [
        0,
        0
      ],
      "type": "VEC2"
    },
    {
      "bufferView": 0,
      "byteOffset": 539016,
      "componentType": 5125,
      "count": 264,
      "max": [
        167
      ],
      "min": [
        0
      ],
      "type": "SCALAR"
    },
    {
      "bufferView": 2,
      "byteOffset": 687792,
      "componentType": 5126,
      "count": 4187,
      "max": [
        0.012074962258338928,
        0.030817272141575813,
        0.9468764066696167
      ],
      "min": [
        -0.0067472532391548157,
        -0.027156777679920197,
        0.16058923304080963
      ],
      "type": "VEC3"
    },
    {
      "bufferView": 2,
      "byteOffset": 738036,
      "componentType": 5126,
      "count": 4187,
      "max": [
        0.99985003471374512,
        0.99980872869491577,
        0.99976038932800293
      ],
      "min": [
        -0.99987131357192993,
        -0.99991905689239502,
        -0.99890869855880737
      ],
      "type": "VEC3"
    },
    {
      "bufferView": 1,
      "byteOffset": 283192,
      "componentType": 5126,
      "count": 4187,
      "max": [
        0,
        0
      ],
      "min": [
        0,
        0
      ],
      "type": "VEC2"
    },
    {
      "bufferView": 0,
      "byteOffset": 540072,
      "componentType": 5125,
      "count": 24624,
      "max": [
        4186
      ],
      "min": [
        0
      ],
      "type": "SCALAR"
    }
  ],
  "asset": {
    "extras": {
      "author": "yesitsskm (https://sketchfab.com/yesitsskm)",
      "license": "CC-BY-NC-ND-4.0 (http://creativecommons.org/licenses/by-nc-nd/4.0/)",
      "source": "https://sketchfab.com/3d-models/acoustic-guitar-for-games-and-vr-free-a15159a59ef84589b1d3d4ea9406dc7e",
      "title": "Acoustic Guitar - For Games and VR | Free"
    },
    "generator": "Sketchfab-8.68.0",
    "version": "2.0"
  },
  "bufferViews": [
    {
      "buffer": 0,
      "byteLength": 638568,
      "byteOffset": 0,
      "name": "floatBufferViews",
      "target": 34963
    },
    {
      "buffer": 0,
      "byteLength": 316688,
      "byteOffset": 638568,
      "byteStride": 8,
      "name": "floatBufferViews",
      "target": 34962
    },
    {
      "buffer": 0,
      "byteLength": 788280,
      "byteOffset": 955256,
      "byteStride": 12,
      "name": "floatBufferViews",
      "target": 34962
    },
    {
      "buffer": 0,
      "byteLength": 185888,
      "byteOffset": 1743536,
      "byteStride": 16,
      "name": "floatBufferViews",
      "target": 34962
    }
  ],
  "buffers": [
    {
      "byteLength": 1929424,
      "uri": "scene.bin"
    }
  ],
  "images": [
    {
      "uri": "textures/Body.001_baseColor.png"
    },
    {
      "uri": "textures/Body.001_normal.png"
    },
    {
      "uri": "textures/Dark_Wood.001_baseColor.png"
    },
    {
      "uri": "textures/Dark_Wood.001_normal.png"
    }
  ],
  "materials": [
    {
      "doubleSided": true,
      "name": "Body.001",
      "normalTexture": {
        "index": 1,
        "scale": 0.10000000000000001,
        "texCoord": 0
      },
      "pbrMetallicRoughness": {
        "baseColorFactor": [
          1,
          1,
          1,
          1
        ],
        "baseColorTexture": {
          "index": 0,
          "texCoord": 0
        },
        "metallicFactor": 0,
        "roughnessFactor": 1
      }
    },
    {
      "doubleSided": true,
      "emissiveFactor": [
        0,
        0,
        0
      ],
      "name": "Dark_Wood.001",
      "normalTexture": {
        "index": 3,
        "scale": 0.10000000000000001,
        "texCoord": 0
      },
      "pbrMetallicRoughness": {
        "baseColorFactor": [
          1,
          1,
          1,
          1
        ],
        "baseColorTexture": {
          "index": 2,
          "texCoord": 0
        },
        "metallicFactor": 0,
        "roughnessFactor": 1
      }
    },
    {
      "doubleSided": true,
      "name": "Neck_Screw_Handle.001",
      "pbrMetallicRoughness": {
        "baseColorFactor": [
          0.00077399399999999996,
          0.00077399399999999996,
          0.00077399399999999996,
          1
        ],
        "metallicFactor": 0,
        "roughnessFactor": 0.99978803301341312
      }
    },
    {
      "doubleSided": true,
      "emissiveFactor": [
        0,
        0,
        0
      ],
      "name": "Metal.001",
      "pbrMetallicRoughness": {
        "baseColorFactor": [
          1,
          1,
          1,
          1
        ],
        "metallicFactor": 1,
        "roughnessFactor": 0.29963853370543997
      }
    },
    {
      "doubleSided": true,
      "emissiveFactor": [
        0,
        0,
        0
      ],
      "name": "Neck_Joint.001",
      "pbrMetallicRoughness": {
        "baseColorFactor": [
          0.80000000000000004,
          0.80000000000000004,
          0.80000000000000004,
          1
        ],
        "metallicFactor": 0,
        "roughnessFactor": 0.82111456180001685
      }
    },
    {
      "doubleSided": true,
      "emissiveFactor": [
        0,
        0,
        0
      ],
      "name": "Strings.001",
      "pbrMetallicRoughness": {
        "baseColorFactor": [
          0.80000000000000004,
          0.54924799999999996,
          0.37601699999999999,
          1
        ],
        "metallicFactor": 1,
        "roughnessFactor": 0.15611271406071942
      }
    }
  ],
  "meshes": [
    {
      "name": "Body (Quads)_Body.001_0",
      "primitives": [
        {
          "attributes": {
            "NORMAL": 1,
            "POSITION": 0,
            "TANGENT": 2,
            "TEXCOORD_0": 3,
            "TEXCOORD_1": 4
          },
          "indices": 5,
          "material": 0,
          "mode": 4
        }
      ]
    },
    {
      "name": "Body (Quads)_Dark Wood.001_0",
      "primitives": [
        {
          "attributes": {
            "NORMAL": 7,
            "POSITION": 6,
            "TANGENT": 8,
            "TEXCOORD_0": 9
          },
          "indices": 10,
          "material": 1,
          "mode": 4
        }
      ]
    },
    {
      "name": "Body (Quads)_Neck Screw Handle.001_0",
      "primitives": [
        {
          "attributes": {
            "NORMAL": 12,
            "POSITION": 11,
            "TEXCOORD_0": 13
          },
          "indices": 14,
          "material": 2,
          "mode": 4
        }
      ]
    },
    {
      "name": "Body (Quads)_Metal.001_0",
      "primitives": [
        {
          "attributes": {
            "NORMAL": 16,
            "POSITION": 15,
            "TEXCOORD_0": 17
          },
          "indices": 18,
          "material": 3,
          "mode": 4
        }
      ]
    },
    {
      "name": "Body (Quads)_Neck Joint.001_0",
      "primitives": [
        {
          "attributes": {
            "NORMAL": 20,
            "POSITION": 19,
            "TEXCOORD_0": 21
          },
          "indices": 22,
          "material": 4,
          "mode": 4
        }
      ]
    },
    {
      "name": "Body (Quads)_Strings.001_0",
      "primitives": [
        {
          "attributes": {
            "NORMAL": 24,
            "POSITION": 23,
            "TEXCOORD_0": 25
          },
          "indices": 26,
          "material": 5,
          "mode": 4
        }
      ]
    }
  ],
  "nodes": [
    {
      "children": [
        1
      ],
      "name": "RootNode (gltf orientation matrix)",
      "rotation": [
        -0.70710678118654746,
        -0,
        -0,
        0.70710678118654757
      ]
    },
    {
      "children": [
        2
      ],
      "matrix": [
        0.010872247747260033,
        0.00016284424998958425,
        0.0022857191387624237,
        0,
        -0.00015936058607473724,
        0.011109917962687788,
        -3.350305762552918e-05,
        0,
        -0.0022859646767911523,
        -2.4093382194195452e-21,
        0.010873415336052072,
        0,
        10.146985054016113,
        0.058251205831766129,
        1.8816851377487183,
        1
      ],
      "name": "RootNode (model correction matrix)"
    },
    {
      "children": [
        3
      ],
      "matrix": [
        1,
        0,
        0,
        0,
        0,
        0,
        1,
        0,
        0,
        -1,
        0,
        0,
        0,
        0,
        0,
        1
      ],
      "name": "5b3a2693522e46edaa510c89e38eed99.fbx"
    },
    {
      "children": [
        4
      ],
      "name": "RootNode"
    },
    {
      "children": [
        5,
        6,
        7,
        8,
        9,
        10
      ],
      "matrix": [
        100,
        0,
        0,
        0,
        0,
        -1.6292067939183141e-05,
        -99.999999999998678,
        0,
        0,
        99.999999999998678,
        -1.6292067939183141e-05,
        0,
        0,
        0,
        0,
        1
      ],
      "name": "Body (Quads)"
    },
    {
      "mesh": 0,
      "name": "Body (Quads)_Body.001_0"
    },
    {
      "mesh": 1,
      "name": "Body (Quads)_Dark Wood.001_0"
    },
    {
      "mesh": 2,
      "name": "Body (Quads)_Neck Screw Handle.001_0"
    },
    {
      "mesh": 3,
      "name": "Body (Quads)_Metal.001_0"
    },
    {
      "mesh": 4,
      "name": "Body (Quads)_Neck Joint.001_0"
    },
    {
      "mesh": 5,
      "name": "Body (Quads)_Strings.001_0"
    }
  ],
  "samplers": [
    {
      "magFilter": 9729,
      "minFilter": 9987,
      "wrapS": 10497,
      "wrapT": 10497
    }
  ],
  "scene": 0,
  "scenes": [
    {
      "name": "OSG_Scene",
      "nodes": [
        0
      ]
    }
  ],
  "textures": [
    {
      "sampler": 0,
      "source": 0
    },
    {
      "sampler": 0,
      "source": 1
    },
    {
      "sampler": 0,
      "source": 2
    },
    {
      "sampler": 0,
      "source": 3
    }
  ]
}

